FPGA_EDA_one/simulation/qsim/my_first_fpga.msim.vcd
$comment
	File created using the following command:
		vcd file my_first_fpga.msim.vcd -direction
$end
$date
	Wed Apr 08 14:23:42 2020
$end
$version
	ModelSim Version 10.5
$end
$timescale
	1ps
$end

$scope module my_first_fpga_vlg_vec_tst $end
$var reg 1 ! CLOCK_50 $end
$var reg 1 " KEY [0:0] $end
$var wire 1 # LEDR [3] $end
$var wire 1 $ LEDR [2] $end
$var wire 1 % LEDR [1] $end
$var wire 1 & LEDR [0] $end
$var wire 1 ' sampler $end

$scope module i1 $end
$var wire 1 ( gnd $end
$var wire 1 ) vcc $end
$var wire 1 * unknown $end
$var tri1 1 + devclrn $end
$var tri1 1 , devpor $end
$var tri1 1 - devoe $end
$var wire 1 . CLOCK_50~input_o $end
$var wire 1 / inst2|altpll_component|auto_generated|wire_pll1_fbout $end
$var wire 1 0 inst2|altpll_component|auto_generated|wire_pll1_clk[0]~clkctrl_outclk $end
$var wire 1 1 inst|counter_out[0]~78_combout $end
$var wire 1 2 inst|counter_out[1]~26_combout $end
$var wire 1 3 inst|counter_out[1]~27 $end
$var wire 1 4 inst|counter_out[2]~28_combout $end
$var wire 1 5 inst|counter_out[2]~29 $end
$var wire 1 6 inst|counter_out[3]~30_combout $end
$var wire 1 7 inst|counter_out[3]~31 $end
$var wire 1 8 inst|counter_out[4]~32_combout $end
$var wire 1 9 inst|counter_out[4]~33 $end
$var wire 1 : inst|counter_out[5]~34_combout $end
$var wire 1 ; inst|counter_out[5]~35 $end
$var wire 1 < inst|counter_out[6]~36_combout $end
$var wire 1 = inst|counter_out[6]~37 $end
$var wire 1 > inst|counter_out[7]~38_combout $end
$var wire 1 ? inst|counter_out[7]~39 $end
$var wire 1 @ inst|counter_out[8]~40_combout $end
$var wire 1 A inst|counter_out[8]~41 $end
$var wire 1 B inst|counter_out[9]~42_combout $end
$var wire 1 C inst|counter_out[9]~43 $end
$var wire 1 D inst|counter_out[10]~44_combout $end
$var wire 1 E inst|counter_out[10]~45 $end
$var wire 1 F inst|counter_out[11]~46_combout $end
$var wire 1 G inst|counter_out[11]~47 $end
$var wire 1 H inst|counter_out[12]~48_combout $end
$var wire 1 I inst|counter_out[12]~49 $end
$var wire 1 J inst|counter_out[13]~50_combout $end
$var wire 1 K inst|counter_out[13]~51 $end
$var wire 1 L inst|counter_out[14]~52_combout $end
$var wire 1 M inst|counter_out[14]~53 $end
$var wire 1 N inst|counter_out[15]~54_combout $end
$var wire 1 O inst|counter_out[15]~55 $end
$var wire 1 P inst|counter_out[16]~56_combout $end
$var wire 1 Q inst|counter_out[16]~57 $end
$var wire 1 R inst|counter_out[17]~58_combout $end
$var wire 1 S inst|counter_out[17]~59 $end
$var wire 1 T inst|counter_out[18]~60_combout $end
$var wire 1 U inst|counter_out[18]~61 $end
$var wire 1 V inst|counter_out[19]~62_combout $end
$var wire 1 W inst|counter_out[19]~63 $end
$var wire 1 X inst|counter_out[20]~64_combout $end
$var wire 1 Y inst|counter_out[20]~65 $end
$var wire 1 Z inst|counter_out[21]~66_combout $end
$var wire 1 [ inst|counter_out[21]~67 $end
$var wire 1 \ inst|counter_out[22]~68_combout $end
$var wire 1 ] inst|counter_out[22]~69 $end
$var wire 1 ^ inst|counter_out[23]~70_combout $end
$var wire 1 _ inst|counter_out[23]~71 $end
$var wire 1 ` inst|counter_out[24]~72_combout $end
$var wire 1 a KEY[0]~input_o $end
$var wire 1 b inst|counter_out[24]~73 $end
$var wire 1 c inst|counter_out[25]~74_combout $end
$var wire 1 d inst|counter_out[25]~75 $end
$var wire 1 e inst|counter_out[26]~76_combout $end
$var wire 1 f inst3|LPM_MUX_component|auto_generated|result_node[3]~0_combout $end
$var wire 1 g inst3|LPM_MUX_component|auto_generated|result_node[2]~1_combout $end
$var wire 1 h inst3|LPM_MUX_component|auto_generated|result_node[1]~2_combout $end
$var wire 1 i inst3|LPM_MUX_component|auto_generated|result_node[0]~3_combout $end
$var wire 1 j inst2|altpll_component|auto_generated|wire_pll1_clk [4] $end
$var wire 1 k inst2|altpll_component|auto_generated|wire_pll1_clk [3] $end
$var wire 1 l inst2|altpll_component|auto_generated|wire_pll1_clk [2] $end
$var wire 1 m inst2|altpll_component|auto_generated|wire_pll1_clk [1] $end
$var wire 1 n inst2|altpll_component|auto_generated|wire_pll1_clk [0] $end
$var wire 1 o inst|counter_out [31] $end
$var wire 1 p inst|counter_out [30] $end
$var wire 1 q inst|counter_out [29] $end
$var wire 1 r inst|counter_out [28] $end
$var wire 1 s inst|counter_out [27] $end
$var wire 1 t inst|counter_out [26] $end
$var wire 1 u inst|counter_out [25] $end
$var wire 1 v inst|counter_out [24] $end
$var wire 1 w inst|counter_out [23] $end
$var wire 1 x inst|counter_out [22] $end
$var wire 1 y inst|counter_out [21] $end
$var wire 1 z inst|counter_out [20] $end
$var wire 1 { inst|counter_out [19] $end
$var wire 1 | inst|counter_out [18] $end
$var wire 1 } inst|counter_out [17] $end
$var wire 1 ~ inst|counter_out [16] $end
$var wire 1 !! inst|counter_out [15] $end
$var wire 1 "! inst|counter_out [14] $end
$var wire 1 #! inst|counter_out [13] $end
$var wire 1 $! inst|counter_out [12] $end
$var wire 1 %! inst|counter_out [11] $end
$var wire 1 &! inst|counter_out [10] $end
$var wire 1 '! inst|counter_out [9] $end
$var wire 1 (! inst|counter_out [8] $end
$var wire 1 )! inst|counter_out [7] $end
$var wire 1 *! inst|counter_out [6] $end
$var wire 1 +! inst|counter_out [5] $end
$var wire 1 ,! inst|counter_out [4] $end
$var wire 1 -! inst|counter_out [3] $end
$var wire 1 .! inst|counter_out [2] $end
$var wire 1 /! inst|counter_out [1] $end
$var wire 1 0! inst|counter_out [0] $end
$var wire 1 1! inst2|altpll_component|auto_generated|pll1_CLK_bus [4] $end
$var wire 1 2! inst2|altpll_component|auto_generated|pll1_CLK_bus [3] $end
$var wire 1 3! inst2|altpll_component|auto_generated|pll1_CLK_bus [2] $end
$var wire 1 4! inst2|altpll_component|auto_generated|pll1_CLK_bus [1] $end
$var wire 1 5! inst2|altpll_component|auto_generated|pll1_CLK_bus [0] $end
$upscope $end
$upscope $end
$enddefinitions $end
#0
$dumpvars
0!
b1 "
0&
0%
0$
0#
x'
0(
1)
x*
1+
1,
1-
0.
x/
x0
11
02
03
04
15
06
07
08
19
0:
0;
0<
1=
0>
0?
0@
1A
0B
0C
0D
1E
0F
0G
0H
1I
0J
0K
0L
1M
0N
0O
0P
1Q
0R
0S
0T
1U
0V
0W
0X
1Y
0Z
0[
0\
1]
0^
0_
0`
1a
1b
0c
0d
0e
0f
0g
0h
0i
xn
xm
xl
xk
xj
00!
0/!
0.!
0-!
0,!
0+!
0*!
0)!
0(!
0'!
0&!
0%!
0$!
0#!
0"!
0!!
0~
0}
0|
0{
0z
0y
0x
0w
0v
0u
0t
zs
zr
zq
zp
zo
x5!
x4!
x3!
x2!
x1!
$end
#833
1/
#1000
1!
0'
1.
#2000
0!
1'
0.
#3000
1!
0'
1.
#4000
0!
1'
0.
#5000
1!
0'
1.
#6000
0!
1'
0.
#7000
1!
0'
1.
#8000
0!
1'
0.
#9000
1!
0'
1.
#10000
0!
1'
0.
#10833
0/
#11000
1!
0'
1.
#12000
0!
1'
0.
#13000
1!
0'
1.
#14000
0!
1'
0.
#15000
1!
0'
1.
#16000
0!
1'
0.
#17000
1!
0'
1.
#18000
0!
1'
0.
#19000
1!
0'
1.
#20000
0!
1'
0.
#20833
1/
#21000
1!
0'
1.
#22000
0!
1'
0.
#23000
1!
0'
1.
#24000
0!
1'
0.
#25000
1!
0'
1.
#26000
0!
1'
0.
#27000
1!
0'
1.
#28000
0!
1'
0.
#29000
1!
0'
1.
#30000
0!
1'
0.
#30833
0/
#31000
1!
0'
1.
#32000
0!
1'
0.
#33000
1!
0'
1.
#34000
0!
1'
0.
#35000
1!
0'
1.
#36000
0!
1'
0.
#37000
1!
0'
1.
#38000
0!
1'
0.
#39000
1!
0'
1.
#40000
0!
1'
0.
#40833
1/
#41000
1!
0'
1.
#42000
0!
1'
0.
#43000
1!
0'
1.
#44000
0!
1'
0.
#45000
1!
0'
1.
#46000
0!
1'
0.
#47000
1!
0'
1.
#48000
0!
1'
0.
#49000
1!
0'
1.
#50000
0!
1'
0.
#50833
0/
#51000
1!
0'
1.
#52000
0!
1'
0.
#53000
1!
0'
1.
#54000
0!
1'
0.
#55000
1!
0'
1.
#56000
0!
1'
0.
#57000
1!
0'
1.
#58000
0!
1'
0.
#59000
1!
0'
1.
#60000
0!
1'
0.
#60833
1/
#61000
1!
0'
1.
#62000
0!
1'
0.
#63000
1!
0'
1.
#64000
0!
1'
0.
#65000
1!
0'
1.
#66000
0!
1'
0.
#67000
1!
0'
1.
#68000
0!
1'
0.
#69000
1!
0'
1.
#70000
0!
1'
0.
#70833
0/
#71000
1!
0'
1.
#72000
0!
1'
0.
#73000
1!
0'
1.
#74000
0!
1'
0.
#75000
1!
0'
1.
#76000
0!
1'
0.
#77000
1!
0'
1.
#78000
0!
1'
0.
#79000
1!
0'
1.
#80000
0!
1'
0.
#80833
1/
#81000
1!
0'
1.
#82000
0!
1'
0.
#83000
1!
0'
1.
#84000
0!
1'
0.
#85000
1!
0'
1.
#86000
0!
1'
0.
#87000
1!
0'
1.
#88000
0!
1'
0.
#89000
1!
0'
1.
#90000
0!
1'
0.
#90833
0/
#91000
1!
0'
1.
#92000
0!
1'
0.
#93000
1!
0'
1.
#94000
0!
1'
0.
#95000
1!
0'
1.
#96000
0!
1'
0.
#97000
1!
0'
1.
#98000
0!
1'
0.
#99000
1!
0'
1.
#100000
0!
1'
0.
#100833
1/
#101000
1!
0'
1.
#102000
0!
1'
0.
#103000
1!
0'
1.
#104000
0!
1'
0.
#105000
1!
0'
1.
#106000
0!
1'
0.
#107000
1!
0'
1.
#108000
0!
1'
0.
#109000
1!
0'
1.
#110000
0!
1'
0.
#110833
0/
#111000
1!
0'
1.
#112000
0!
1'
0.
#113000
1!
0'
1.
#114000
0!
1'
0.
#115000
1!
0'
1.
#116000
0!
1'
0.
#117000
1!
0'
1.
#118000
0!
1'
0.
#119000
1!
0'
1.
#120000
0!
1'
0.
#120833
1/
#121000
1!
0'
1.
#122000
0!
1'
0.
#123000
1!
0'
1.
#124000
0!
1'
0.
#125000
1!
0'
1.
#126000
0!
1'
0.
#127000
1!
0'
1.
#128000
0!
1'
0.
#129000
1!
0'
1.
#130000
0!
1'
0.
#130833
0/
#131000
1!
0'
1.
#132000
0!
1'
0.
#133000
1!
0'
1.
#134000
0!
1'
0.
#135000
1!
0'
1.
#136000
0!
1'
0.
#137000
1!
0'
1.
#138000
0!
1'
0.
#139000
1!
0'
1.
#140000
0!
1'
0.
#140833
1/
#141000
1!
0'
1.
#142000
0!
1'
0.
#143000
1!
0'
1.
#144000
0!
1'
0.
#145000
1!
0'
1.
#146000
0!
1'
0.
#147000
1!
0'
1.
#148000
0!
1'
0.
#149000
1!
0'
1.
#150000
0!
1'
0.
#150833
0/
#151000
1!
0'
1.
#152000
0!
1'
0.
#153000
1!
0'
1.
#154000
0!
1'
0.
#155000
1!
0'
1.
#156000
0!
1'
0.
#157000
1!
0'
1.
#158000
0!
1'
0.
#159000
1!
0'
1.
#160000
0!
1'
0.
#160833
1/
#161000
1!
0'
1.
#162000
0!
1'
0.
#163000
1!
0'
1.
#164000
0!
1'
0.
#165000
1!
0'
1.
#166000
0!
1'
0.
#167000
1!
0'
1.
#168000
0!
1'
0.
#169000
1!
0'
1.
#170000
0!
1'
0.
#170833
0/
#171000
1!
0'
1.
#172000
0!
1'
0.
#173000
1!
0'
1.
#174000
0!
1'
0.
#175000
1!
0'
1.
#176000
0!
1'
0.
#177000
1!
0'
1.
#178000
0!
1'
0.
#179000
1!
0'
1.
#180000
0!
1'
0.
#180833
1/
#181000
1!
0'
1.
#182000
0!
1'
0.
#183000
1!
0'
1.
#184000
0!
1'
0.
#185000
1!
0'
1.
#186000
0!
1'
0.
#187000
1!
0'
1.
#188000
0!
1'
0.
#189000
1!
0'
1.
#190000
0!
1'
0.
#190833
0/
#191000
1!
0'
1.
#192000
0!
1'
0.
#193000
1!
0'
1.
#194000
0!
1'
0.
#195000
1!
0'
1.
#196000
0!
1'
0.
#197000
1!
0'
1.
#198000
0!
1'
0.
#199000
1!
0'
1.
#200000
0!
1'
0.
#200833
1/
#201000
1!
0'
1.
#202000
0!
1'
0.
#203000
1!
0'
1.
#204000
0!
1'
0.
#205000
1!
0'
1.
#206000
0!
1'
0.
#207000
1!
0'
1.
#208000
0!
1'
0.
#209000
1!
0'
1.
#210000
0!
1'
0.
#210833
0/
#211000
1!
0'
1.
#212000
0!
1'
0.
#213000
1!
0'
1.
#214000
0!
1'
0.
#215000
1!
0'
1.
#216000
0!
1'
0.
#217000
1!
0'
1.
#218000
0!
1'
0.
#219000
1!
0'
1.
#220000
0!
1'
0.
#220833
1/
#221000
1!
0'
1.
#222000
0!
1'
0.
#223000
1!
0'
1.
#224000
0!
1'
0.
#225000
1!
0'
1.
#226000
0!
1'
0.
#227000
1!
0'
1.
#228000
0!
1'
0.
#229000
1!
0'
1.
#230000
0!
1'
0.
#230833
0/
#231000
1!
0'
1.
#232000
0!
1'
0.
#233000
1!
0'
1.
#234000
0!
1'
0.
#235000
1!
0'
1.
#236000
0!
1'
0.
#237000
1!
0'
1.
#238000
0!
1'
0.
#239000
1!
0'
1.
#240000
0!
1'
0.
#240833
1/
#241000
1!
0'
1.
#242000
0!
1'
0.
#243000
1!
0'
1.
#244000
0!
1'
0.
#245000
1!
0'
1.
#246000
0!
1'
0.
#247000
1!
0'
1.
#248000
0!
1'
0.
#249000
1!
0'
1.
#250000
0!
1'
0.
#250833
0/
#251000
1!
0'
1.
#252000
0!
1'
0.
#253000
1!
0'
1.
#254000
0!
1'
0.
#255000
1!
0'
1.
#256000
0!
1'
0.
#257000
1!
0'
1.
#258000
0!
1'
0.
#259000
1!
0'
1.
#260000
0!
1'
0.
#260833
1/
#261000
1!
0'
1.
#262000
0!
1'
0.
#263000
1!
0'
1.
#264000
0!
1'
0.
#265000
1!
0'
1.
#266000
0!
1'
0.
#267000
1!
0'
1.
#268000
0!
1'
0.
#269000
1!
0'
1.
#270000
0!
1'
0.
#270833
0/
#271000
1!
0'
1.
#272000
0!
1'
0.
#273000
1!
0'
1.
#274000
0!
1'
0.
#275000
1!
0'
1.
#276000
0!
1'
0.
#277000
1!
0'
1.
#278000
0!
1'
0.
#279000
1!
0'
1.
#280000
0!
1'
0.
#280833
1/
#281000
1!
0'
1.
#282000
0!
1'
0.
#283000
1!
0'
1.
#284000
0!
1'
0.
#285000
1!
0'
1.
#286000
0!
1'
0.
#287000
1!
0'
1.
#288000
0!
1'
0.
#289000
1!
0'
1.
#290000
0!
1'
0.
#290833
0/
#291000
1!
0'
1.
#292000
0!
1'
0.
#293000
1!
0'
1.
#294000
0!
1'
0.
#295000
1!
0'
1.
#296000
0!
1'
0.
#297000
1!
0'
1.
#298000
0!
1'
0.
#299000
1!
0'
1.
#300000
0!
1'
0.
#300833
1/
#301000
1!
0'
1.
#302000
0!
1'
0.
#303000
1!
0'
1.
#304000
0!
1'
0.
#305000
1!
0'
1.
#306000
0!
1'
0.
#307000
1!
0'
1.
#308000
0!
1'
0.
#309000
1!
0'
1.
#310000
0!
1'
0.
#310833
0/
#311000
1!
0'
1.
#312000
0!
1'
0.
#313000
1!
0'
1.
#314000
0!
1'
0.
#315000
1!
0'
1.
#316000
0!
1'
0.
#317000
1!
0'
1.
#318000
0!
1'
0.
#319000
1!
0'
1.
#320000
0!
1'
0.
#320833
1/
#321000
1!
0'
1.
#322000
0!
1'
0.
#323000
1!
0'
1.
#324000
0!
1'
0.
#325000
1!
0'
1.
#326000
0!
1'
0.
#327000
1!
0'
1.
#328000
0!
1'
0.
#329000
1!
0'
1.
#330000
0!
1'
0.
#330833
0/
#331000
1!
0'
1.
#332000
0!
1'
0.
#333000
1!
0'
1.
#334000
0!
1'
0.
#335000
1!
0'
1.
#336000
0!
1'
0.
#337000
1!
0'
1.
#338000
0!
1'
0.
#339000
1!
0'
1.
#340000
0!
1'
0.
#340833
1/
#341000
1!
0'
1.
#342000
0!
1'
0.
#343000
1!
0'
1.
#344000
0!
1'
0.
#345000
1!
0'
1.
#346000
0!
1'
0.
#347000
1!
0'
1.
#348000
0!
1'
0.
#349000
1!
0'
1.
#350000
0!
1'
0.
#350833
0/
#351000
1!
0'
1.
#352000
0!
1'
0.
#353000
1!
0'
1.
#354000
0!
1'
0.
#355000
1!
0'
1.
#356000
0!
1'
0.
#357000
1!
0'
1.
#358000
0!
1'
0.
#359000
1!
0'
1.
#360000
0!
1'
0.
#360833
1/
#361000
1!
0'
1.
#362000
0!
1'
0.
#363000
1!
0'
1.
#364000
0!
1'
0.
#365000
1!
0'
1.
#366000
0!
1'
0.
#367000
1!
0'
1.
#368000
0!
1'
0.
#369000
1!
0'
1.
#370000
0!
1'
0.
#370833
0/
#371000
1!
0'
1.
#372000
0!
1'
0.
#373000
1!
0'
1.
#374000
0!
1'
0.
#375000
1!
0'
1.
#376000
0!
1'
0.
#377000
1!
0'
1.
#378000
0!
1'
0.
#379000
1!
0'
1.
#380000
0!
1'
0.
#380833
1/
#381000
1!
0'
1.
#382000
0!
1'
0.
#383000
1!
0'
1.
#384000
0!
1'
0.
#385000
1!
0'
1.
#386000
0!
1'
0.
#387000
1!
0'
1.
#388000
0!
1'
0.
#389000
1!
0'
1.
#390000
0!
1'
0.
#390833
0/
#391000
1!
0'
1.
#392000
0!
1'
0.
#393000
1!
0'
1.
#394000
0!
1'
0.
#395000
1!
0'
1.
#396000
0!
1'
0.
#397000
1!
0'
1.
#398000
0!
1'
0.
#399000
1!
0'
1.
#400000
0!
1'
0.
#400833
1/
#401000
1!
0'
1.
#402000
0!
1'
0.
#403000
1!
0'
1.
#404000
0!
1'
0.
#405000
1!
0'
1.
#406000
0!
1'
0.
#407000
1!
0'
1.
#408000
0!
1'
0.
#409000
1!
0'
1.
#410000
0!
1'
0.
#410833
0/
#411000
1!
0'
1.
#412000
0!
1'
0.
#413000
1!
0'
1.
#414000
0!
1'
0.
#415000
1!
0'
1.
#416000
0!
1'
0.
#417000
1!
0'
1.
#418000
0!
1'
0.
#419000
1!
0'
1.
#420000
0!
1'
0.
#420833
1/
#421000
1!
0'
1.
#422000
0!
1'
0.
#423000
1!
0'
1.
#424000
0!
1'
0.
#425000
1!
0'
1.
#426000
0!
1'
0.
#427000
1!
0'
1.
#428000
0!
1'
0.
#429000
1!
0'
1.
#430000
0!
1'
0.
#430833
0/
#431000
1!
0'
1.
#432000
0!
1'
0.
#433000
1!
0'
1.
#434000
0!
1'
0.
#435000
1!
0'
1.
#436000
0!
1'
0.
#437000
1!
0'
1.
#438000
0!
1'
0.
#439000
1!
0'
1.
#440000
0!
1'
0.
#440833
1/
#441000
1!
0'
1.
#442000
0!
1'
0.
#443000
1!
0'
1.
#444000
0!
1'
0.
#445000
1!
0'
1.
#446000
0!
1'
0.
#447000
1!
0'
1.
#448000
0!
1'
0.
#449000
1!
0'
1.
#450000
0!
1'
0.
#450833
0/
#451000
1!
0'
1.
#452000
0!
1'
0.
#453000
1!
0'
1.
#454000
0!
1'
0.
#455000
1!
0'
1.
#456000
0!
1'
0.
#457000
1!
0'
1.
#458000
0!
1'
0.
#459000
1!
0'
1.
#460000
0!
1'
0.
#460833
1/
#461000
1!
0'
1.
#462000
0!
1'
0.
#463000
1!
0'
1.
#464000
0!
1'
0.
#465000
1!
0'
1.
#466000
0!
1'
0.
#467000
1!
0'
1.
#468000
0!
1'
0.
#469000
1!
0'
1.
#470000
0!
1'
0.
#470833
0/
#471000
1!
0'
1.
#472000
0!
1'
0.
#473000
1!
0'
1.
#474000
0!
1'
0.
#475000
1!
0'
1.
#476000
0!
1'
0.
#477000
1!
0'
1.
#478000
0!
1'
0.
#479000
1!
0'
1.
#480000
0!
1'
0.
#480833
1/
#481000
1!
0'
1.
#482000
0!
1'
0.
#483000
1!
0'
1.
#484000
0!
1'
0.
#485000
1!
0'
1.
#486000
0!
1'
0.
#487000
1!
0'
1.
#488000
0!
1'
0.
#489000
1!
0'
1.
#490000
0!
1'
0.
#490833
0/
#491000
1!
0'
1.
#492000
0!
1'
0.
#493000
1!
0'
1.
#494000
0!
1'
0.
#495000
1!
0'
1.
#496000
0!
1'
0.
#497000
1!
0'
1.
#498000
0!
1'
0.
#499000
1!
0'
1.
#500000
0!
1'
0.
#500833
1/
#501000
1!
0'
1.
#502000
0!
1'
0.
#503000
1!
0'
1.
#504000
0!
1'
0.
#505000
1!
0'
1.
#506000
0!
1'
0.
#507000
1!
0'
1.
#508000
0!
1'
0.
#509000
1!
0'
1.
#510000
0!
1'
0.
#510833
0/
#511000
1!
0'
1.
#512000
0!
1'
0.
#513000
1!
0'
1.
#514000
0!
1'
0.
#515000
1!
0'
1.
#516000
0!
1'
0.
#517000
1!
0'
1.
#518000
0!
1'
0.
#519000
1!
0'
1.
#520000
0!
1'
0.
#520833
1/
#521000
1!
0'
1.
#522000
0!
1'
0.
#523000
1!
0'
1.
#524000
0!
1'
0.
#525000
1!
0'
1.
#526000
0!
1'
0.
#527000
1!
0'
1.
#528000
0!
1'
0.
#529000
1!
0'
1.
#530000
0!
1'
0.
#530833
0/
#531000
1!
0'
1.
#532000
0!
1'
0.
#533000
1!
0'
1.
#534000
0!
1'
0.
#535000
1!
0'
1.
#536000
0!
1'
0.
#537000
1!
0'
1.
#538000
0!
1'
0.
#539000
1!
0'
1.
#540000
0!
1'
0.
#540833
1/
#541000
1!
0'
1.
#542000
0!
1'
0.
#543000
1!
0'
1.
#544000
0!
1'
0.
#545000
1!
0'
1.
#546000
0!
1'
0.
#547000
1!
0'
1.
#548000
0!
1'
0.
#549000
1!
0'
1.
#550000
0!
1'
0.
#550833
0/
#551000
1!
0'
1.
#552000
0!
1'
0.
#553000
1!
0'
1.
#554000
0!
1'
0.
#555000
1!
0'
1.
#556000
0!
1'
0.
#557000
1!
0'
1.
#558000
0!
1'
0.
#559000
1!
0'
1.
#560000
0!
1'
0.
#560833
1/
#561000
1!
0'
1.
#562000
0!
1'
0.
#563000
1!
0'
1.
#564000
0!
1'
0.
#565000
1!
0'
1.
#566000
0!
1'
0.
#567000
1!
0'
1.
#568000
0!
1'
0.
#569000
1!
0'
1.
#570000
0!
1'
0.
#570833
0/
#571000
1!
0'
1.
#572000
0!
1'
0.
#573000
1!
0'
1.
#574000
0!
1'
0.
#575000
1!
0'
1.
#576000
0!
1'
0.
#577000
1!
0'
1.
#578000
0!
1'
0.
#579000
1!
0'
1.
#580000
0!
1'
0.
#580833
1/
#581000
1!
0'
1.
#582000
0!
1'
0.
#583000
1!
0'
1.
#584000
0!
1'
0.
#585000
1!
0'
1.
#586000
0!
1'
0.
#587000
1!
0'
1.
#588000
0!
1'
0.
#589000
1!
0'
1.
#590000
0!
1'
0.
#590833
0/
#591000
1!
0'
1.
#592000
0!
1'
0.
#593000
1!
0'
1.
#594000
0!
1'
0.
#595000
1!
0'
1.
#596000
0!
1'
0.
#597000
1!
0'
1.
#598000
0!
1'
0.
#599000
1!
0'
1.
#600000
0!
1'
0.
#600833
1/
#601000
1!
0'
1.
#602000
0!
1'
0.
#603000
1!
0'
1.
#604000
0!
1'
0.
#605000
1!
0'
1.
#606000
0!
1'
0.
#607000
1!
0'
1.
#608000
0!
1'
0.
#609000
1!
0'
1.
#610000
0!
1'
0.
#610833
0/
#611000
1!
0'
1.
#612000
0!
1'
0.
#613000
1!
0'
1.
#614000
0!
1'
0.
#615000
1!
0'
1.
#616000
0!
1'
0.
#617000
1!
0'
1.
#618000
0!
1'
0.
#619000
1!
0'
1.
#620000
0!
1'
0.
#620833
1/
#621000
1!
0'
1.
#622000
0!
1'
0.
#623000
1!
0'
1.
#624000
0!
1'
0.
#625000
1!
0'
1.
#626000
0!
1'
0.
#627000
1!
0'
1.
#628000
0!
1'
0.
#629000
1!
0'
1.
#630000
0!
1'
0.
#630833
0/
#631000
1!
0'
1.
#632000
0!
1'
0.
#633000
1!
0'
1.
#634000
0!
1'
0.
#635000
1!
0'
1.
#636000
0!
1'
0.
#637000
1!
0'
1.
#638000
0!
1'
0.
#639000
1!
0'
1.
#640000
0!
1'
0.
#640833
1/
#641000
1!
0'
1.
#642000
0!
1'
0.
#643000
1!
0'
1.
#644000
0!
1'
0.
#645000
1!
0'
1.
#646000
0!
1'
0.
#647000
1!
0'
1.
#648000
0!
1'
0.
#649000
1!
0'
1.
#650000
0!
1'
0.
#650833
0/
#651000
1!
0'
1.
#652000
0!
1'
0.
#653000
1!
0'
1.
#654000
0!
1'
0.
#655000
1!
0'
1.
#656000
0!
1'
0.
#657000
1!
0'
1.
#658000
0!
1'
0.
#659000
1!
0'
1.
#660000
0!
1'
0.
#660833
1/
#661000
1!
0'
1.
#662000
0!
1'
0.
#663000
1!
0'
1.
#664000
0!
1'
0.
#665000
1!
0'
1.
#666000
0!
1'
0.
#667000
1!
0'
1.
#668000
0!
1'
0.
#669000
1!
0'
1.
#670000
0!
1'
0.
#670833
0/
#671000
1!
0'
1.
#672000
0!
1'
0.
#673000
1!
0'
1.
#674000
0!
1'
0.
#675000
1!
0'
1.
#676000
0!
1'
0.
#677000
1!
0'
1.
#678000
0!
1'
0.
#679000
1!
0'
1.
#680000
0!
1'
0.
#680833
1/
#681000
1!
0'
1.
#682000
0!
1'
0.
#683000
1!
0'
1.
#684000
0!
1'
0.
#685000
1!
0'
1.
#686000
0!
1'
0.
#687000
1!
0'
1.
#688000
0!
1'
0.
#689000
1!
0'
1.
#690000
0!
1'
0.
#690833
0/
#691000
1!
0'
1.
#692000
0!
1'
0.
#693000
1!
0'
1.
#694000
0!
1'
0.
#695000
1!
0'
1.
#696000
0!
1'
0.
#697000
1!
0'
1.
#698000
0!
1'
0.
#699000
1!
0'
1.
#700000
0!
1'
0.
#700833
1/
#701000
1!
0'
1.
#702000
0!
1'
0.
#703000
1!
0'
1.
#704000
0!
1'
0.
#705000
1!
0'
1.
#706000
0!
1'
0.
#707000
1!
0'
1.
#708000
0!
1'
0.
#709000
1!
0'
1.
#710000
0!
1'
0.
#710833
0/
#711000
1!
0'
1.
#712000
0!
1'
0.
#713000
1!
0'
1.
#714000
0!
1'
0.
#715000
1!
0'
1.
#716000
0!
1'
0.
#717000
1!
0'
1.
#718000
0!
1'
0.
#719000
1!
0'
1.
#720000
0!
1'
0.
#720833
1/
#721000
1!
0'
1.
#722000
0!
1'
0.
#723000
1!
0'
1.
#724000
0!
1'
0.
#725000
1!
0'
1.
#726000
0!
1'
0.
#727000
1!
0'
1.
#728000
0!
1'
0.
#729000
1!
0'
1.
#730000
0!
1'
0.
#730833
0/
#731000
1!
0'
1.
#732000
0!
1'
0.
#733000
1!
0'
1.
#734000
0!
1'
0.
#735000
1!
0'
1.
#736000
0!
1'
0.
#737000
1!
0'
1.
#738000
0!
1'
0.
#739000
1!
0'
1.
#740000
0!
1'
0.
#740833
1/
#741000
1!
0'
1.
#742000
0!
1'
0.
#743000
1!
0'
1.
#744000
0!
1'
0.
#745000
1!
0'
1.
#746000
0!
1'
0.
#747000
1!
0'
1.
#748000
0!
1'
0.
#749000
1!
0'
1.
#750000
0!
1'
0.
#750833
0/
#751000
1!
0'
1.
#752000
0!
1'
0.
#753000
1!
0'
1.
#754000
0!
1'
0.
#755000
1!
0'
1.
#756000
0!
1'
0.
#757000
1!
0'
1.
#758000
0!
1'
0.
#759000
1!
0'
1.
#760000
0!
1'
0.
#760833
1/
#761000
1!
0'
1.
#762000
0!
1'
0.
#763000
1!
0'
1.
#764000
0!
1'
0.
#765000
1!
0'
1.
#766000
0!
1'
0.
#767000
1!
0'
1.
#768000
0!
1'
0.
#769000
1!
0'
1.
#770000
0!
1'
0.
#770833
0/
#771000
1!
0'
1.
#772000
0!
1'
0.
#773000
1!
0'
1.
#774000
0!
1'
0.
#775000
1!
0'
1.
#776000
0!
1'
0.
#777000
1!
0'
1.
#778000
0!
1'
0.
#779000
1!
0'
1.
#780000
0!
1'
0.
#780833
1/
#781000
1!
0'
1.
#782000
0!
1'
0.
#783000
1!
0'
1.
#784000
0!
1'
0.
#785000
1!
0'
1.
#786000
0!
1'
0.
#787000
1!
0'
1.
#788000
0!
1'
0.
#789000
1!
0'
1.
#790000
0!
1'
0.
#790833
0/
#791000
1!
0'
1.
#792000
0!
1'
0.
#793000
1!
0'
1.
#794000
0!
1'
0.
#795000
1!
0'
1.
#796000
0!
1'
0.
#797000
1!
0'
1.
#798000
0!
1'
0.
#799000
1!
0'
1.
#800000
0!
1'
0.
#800833
1/
#801000
1!
0'
1.
#802000
0!
1'
0.
#803000
1!
0'
1.
#804000
0!
1'
0.
#805000
1!
0'
1.
#806000
0!
1'
0.
#807000
1!
0'
1.
#808000
0!
1'
0.
#809000
1!
0'
1.
#810000
0!
1'
0.
#810833
0/
#811000
1!
0'
1.
#812000
0!
1'
0.
#813000
1!
0'
1.
#814000
0!
1'
0.
#815000
1!
0'
1.
#816000
0!
1'
0.
#817000
1!
0'
1.
#818000
0!
1'
0.
#819000
1!
0'
1.
#820000
0!
1'
0.
#820833
1/
#821000
1!
0'
1.
#822000
0!
1'
0.
#823000
1!
0'
1.
#824000
0!
1'
0.
#825000
1!
0'
1.
#826000
0!
1'
0.
#827000
1!
0'
1.
#828000
0!
1'
0.
#829000
1!
0'
1.
#830000
0!
1'
0.
#830833
0/
#831000
1!
0'
1.
#832000
0!
1'
0.
#833000
1!
0'
1.
#834000
0!
1'
0.
#835000
1!
0'
1.
#836000
0!
1'
0.
#837000
1!
0'
1.
#838000
0!
1'
0.
#839000
1!
0'
1.
#840000
0!
1'
0.
